Subject, Age, Sex, Date, CondCode, SNR, trial_p_condition, trial_p_session, start_time, time_stamp, Wave, W1, W2, W3, W4, W5, total, revs
4,24,Male,2020-06-08,SV,6,1,1,20:46:41,20:47:21,asl01s01.wav,1,1,1,0,0,3
4,24,Male,2020-06-08,SV,-4,2,2,20:46:41,20:47:41,asl01s02.wav,1,1,1,0,0,3
4,24,Male,2020-06-08,SV,-14,3,3,20:46:41,20:47:53,asl01s03.wav,1,0,0,0,0,1
4,24,Male,2020-06-08,SV,-8,4,4,20:46:41,20:48:07,asl01s04.wav,1,1,1,0,0,3
4,24,Male,2020-06-08,SV,-11,5,5,20:46:41,20:48:19,asl01s05.wav,1,1,1,0,0,3
4,24,Male,2020-06-08,SV,-14,6,6,20:46:41,20:48:31,asl01s06.wav,0,1,1,0,0,2
4,24,Male,2020-06-08,SV,-17,7,7,20:46:41,20:48:43,asl01s07.wav,1,0,1,0,0,2
4,24,Male,2020-06-08,SV,-20,8,8,20:46:41,20:48:55,asl01s08.wav,0,1,0,0,0,1
4,24,Male,2020-06-08,SV,-17,9,9,20:46:41,20:49:07,asl01s09.wav,1,0,0,0,0,1
4,24,Male,2020-06-08,SV,-14,10,10,20:46:41,20:49:18,asl01s10.wav,0,0,0,0,0,0
4,24,Male,2020-06-08,SV,-11,11,11,20:46:41,20:49:30,asl01s11.wav,1,1,1,0,0,3
4,24,Male,2020-06-08,SV,-14,12,12,20:46:41,20:49:42,asl01s12.wav,0,0,0,0,0,0
4,24,Male,2020-06-08,SV,-11,13,13,20:46:41,20:49:54,asl01s13.wav,1,0,0,0,0,1
4,24,Male,2020-06-08,SV,-8,14,14,20:46:41,20:50:05,asl01s14.wav,0,0,0,0,0,0
4,24,Male,2020-06-08,SV,-5,15,15,20:46:41,20:50:17,asl01s15.wav,1,1,1,0,0,3
4,24,Male,2020-06-08,SNV,6,1,16,20:46:41,20:50:43,asl02s01.wav,1,1,1,0,0,3
4,24,Male,2020-06-08,SNV,-4,2,17,20:46:41,20:50:55,asl02s02.wav,1,1,1,0,0,3
4,24,Male,2020-06-08,SNV,-14,3,18,20:46:41,20:51:09,asl02s03.wav,0,0,0,0,0,0
4,24,Male,2020-06-08,SNV,-8,4,19,20:46:41,20:52:10,asl02s04.wav,0,0,0,0,0,0
4,24,Male,2020-06-08,SNV,-2,5,20,20:46:41,20:52:24,asl02s05.wav,0,1,1,0,0,2
4,24,Male,2020-06-08,SNV,-5,6,21,20:46:41,20:52:36,asl02s06.wav,0,0,0,0,0,0
4,24,Male,2020-06-08,SNV,-2,7,22,20:46:41,20:52:48,asl02s07.wav,1,1,1,0,0,3
4,24,Male,2020-06-08,SNV,-5,8,23,20:46:41,20:53:00,asl02s08.wav,0,1,1,0,0,2
4,24,Male,2020-06-08,SNV,-8,9,24,20:46:41,20:53:11,asl02s09.wav,0,0,0,0,0,0
4,24,Male,2020-06-08,SNV,-5,10,25,20:46:41,20:53:24,asl02s10.wav,0,1,1,0,0,2
4,24,Male,2020-06-08,SNV,-8,11,26,20:46:41,20:53:35,asl02s11.wav,0,0,0,0,0,0
4,24,Male,2020-06-08,SNV,-5,12,27,20:46:41,20:53:50,asl02s12.wav,1,1,1,0,0,3
4,24,Male,2020-06-08,SNV,-8,13,28,20:46:41,20:54:01,asl02s13.wav,0,0,0,0,0,0
4,24,Male,2020-06-08,SNV,-5,14,29,20:46:41,20:54:13,asl02s14.wav,0,0,0,0,0,0
4,24,Male,2020-06-08,SNV,-2,15,30,20:46:41,20:54:25,asl02s15.wav,1,1,1,0,0,3
4,24,Male,2020-06-08,NSV,6,1,31,20:46:41,20:54:40,asl03s01.wav,1,1,1,0,0,3
4,24,Male,2020-06-08,NSV,-4,2,32,20:46:41,20:54:51,asl03s02.wav,1,1,1,0,0,3
4,24,Male,2020-06-08,NSV,-14,3,33,20:46:41,20:55:03,asl03s03.wav,0,0,0,0,0,0
4,24,Male,2020-06-08,NSV,-8,4,34,20:46:41,20:55:17,asl03s04.wav,1,1,1,0,0,3
4,24,Male,2020-06-08,NSV,-11,5,35,20:46:41,20:55:30,asl03s05.wav,1,1,0,0,0,2
4,24,Male,2020-06-08,NSV,-14,6,36,20:46:41,20:55:41,asl03s06.wav,0,1,0,0,0,1
4,24,Male,2020-06-08,NSV,-11,7,37,20:46:41,20:55:55,asl03s07.wav,0,0,1,0,0,1
4,24,Male,2020-06-08,NSV,-8,8,38,20:46:41,20:56:07,asl03s08.wav,1,1,1,0,0,3
4,24,Male,2020-06-08,NSV,-11,9,39,20:46:41,20:56:18,asl03s09.wav,1,1,1,0,0,3
4,24,Male,2020-06-08,NSV,-14,10,40,20:46:41,20:56:30,asl03s10.wav,0,0,0,0,0,0
4,24,Male,2020-06-08,NSV,-11,11,41,20:46:41,20:56:41,asl03s11.wav,0,0,1,0,0,1
4,24,Male,2020-06-08,NSV,-8,12,42,20:46:41,20:56:54,asl03s12.wav,1,0,0,0,0,1
4,24,Male,2020-06-08,NSV,-5,13,43,20:46:41,20:57:05,asl03s13.wav,1,1,1,0,0,3
4,24,Male,2020-06-08,NSV,-8,14,44,20:46:41,20:57:17,asl03s14.wav,1,1,1,0,0,3
4,24,Male,2020-06-08,NSV,-11,15,45,20:46:41,20:57:29,asl03s15.wav,0,0,0,0,0,0
4,24,Male,2020-06-08,NSNV,6,1,46,20:46:41,20:57:47,asl04s01.wav,1,1,1,0,0,3
4,24,Male,2020-06-08,NSNV,-4,2,47,20:46:41,20:58:00,asl04s02.wav,0,0,0,0,0,0
4,24,Male,2020-06-08,NSNV,2,3,48,20:46:41,20:58:11,asl04s03.wav,1,1,1,0,0,3
4,24,Male,2020-06-08,NSNV,-1,4,49,20:46:41,20:58:22,asl04s04.wav,1,1,1,0,0,3
4,24,Male,2020-06-08,NSNV,-4,5,50,20:46:41,20:58:34,asl04s05.wav,0,1,1,0,0,2
4,24,Male,2020-06-08,NSNV,-7,6,51,20:46:41,20:58:46,asl04s06.wav,0,0,0,0,0,0
4,24,Male,2020-06-08,NSNV,-4,7,52,20:46:41,20:58:57,asl04s07.wav,1,1,1,0,0,3
4,24,Male,2020-06-08,NSNV,-7,8,53,20:46:41,20:59:09,asl04s08.wav,0,0,0,0,0,0
4,24,Male,2020-06-08,NSNV,-4,9,54,20:46:41,20:59:22,asl04s09.wav,0,1,0,0,0,1
4,24,Male,2020-06-08,NSNV,-1,10,55,20:46:41,20:59:34,asl04s10.wav,1,1,1,0,0,3
4,24,Male,2020-06-08,NSNV,-4,11,56,20:46:41,20:59:48,asl04s11.wav,1,0,0,0,0,1
4,24,Male,2020-06-08,NSNV,-1,12,57,20:46:41,21:00:00,asl04s12.wav,1,1,1,0,0,3
4,24,Male,2020-06-08,NSNV,-4,13,58,20:46:41,21:00:11,asl04s13.wav,0,0,0,0,0,0
4,24,Male,2020-06-08,NSNV,-1,14,59,20:46:41,21:00:23,asl04s14.wav,1,1,1,0,0,3
4,24,Male,2020-06-08,NSNV,-4,15,60,20:46:41,21:00:35,asl04s15.wav,1,0,0,0,0,1
